Procesador/CPU/CPU.vcd
$date
  Fri Jun 04 19:16:55 2021
$end
$version
  GHDL v0
$end
$timescale
  1 fs
$end
$var reg 1 ! reset $end
$var reg 8 " puertoa[7:0] $end
$var reg 8 # puertoc[7:0] $end
$var reg 8 $ puertoe[7:0] $end
$var reg 8 % puertob[7:0] $end
$var reg 8 & puertod[7:0] $end
$var reg 8 ' puertof[7:0] $end
$var reg 1 ( clk $end
$var reg 1 ) clock_on $end
$scope module uut $end
$var reg 1 * reset $end
$var reg 1 + clk $end
$var reg 8 , puertoa[7:0] $end
$var reg 8 - puertoc[7:0] $end
$var reg 8 . puertoe[7:0] $end
$var reg 8 / puertob[7:0] $end
$var reg 8 0 puertod[7:0] $end
$var reg 8 1 puertof[7:0] $end
$var reg 9 2 dire[8:0] $end
$var reg 9 3 salpc[8:0] $end
$var reg 9 4 bus_dir[8:0] $end
$var reg 8 5 coop[7:0] $end
$var reg 8 6 sr1[7:0] $end
$var reg 8 7 sr2[7:0] $end
$var reg 8 8 sr3[7:0] $end
$var reg 8 9 opa[7:0] $end
$var reg 8 : opb[7:0] $end
$var reg 8 ; bus_data[7:0] $end
$var reg 6 < oper[5:0] $end
$var reg 16 = senalesc[15:0] $end
$var reg 2 > sela[1:0] $end
$var reg 2 ? selb[1:0] $end
$var reg 1 @ szf $end
$var reg 1 A snf $end
$var reg 1 B addpc $end
$var reg 1 C ldpc $end
$var reg 1 D ldmar $end
$var reg 1 E ldmbr $end
$var reg 1 F ldir $end
$var reg 1 G sel $end
$var reg 1 H ser1 $end
$var reg 1 I ser2 $end
$var reg 1 J ser3 $end
$var reg 1 K zf $end
$var reg 1 L nf $end
$var reg 1 M memoe $end
$var reg 1 N wr $end
$var reg 1 O aluoe $end
$var reg 1 P sembr $end
$var reg 1 Q spa $end
$var reg 1 R spb $end
$var reg 1 S spc $end
$var reg 1 T spd $end
$var reg 1 U spe $end
$var reg 1 V spf $end
$var reg 1 W cs $end
$scope module counter $end
$var reg 1 X add $end
$var reg 1 Y load $end
$var reg 1 Z reset $end
$var reg 1 [ clk $end
$var reg 9 \ pc_in[8:0] $end
$var reg 9 ] pc_out[8:0] $end
$upscope $end
$scope module mar $end
$var reg 1 ^ load $end
$var reg 1 _ sel $end
$var reg 1 ` clk $end
$var reg 9 a entrada[8:0] $end
$var reg 9 b dire[8:0] $end
$var reg 9 c salida[8:0] $end
$upscope $end
$scope module mem $end
$var reg 9 d a[8:0] $end
$var reg 8 e d[7:0] $end
$var reg 1 f wr $end
$var reg 1 g oe $end
$var reg 1 h cs $end
$comment contenido is not handled $end
$var integer 32 i palabra $end
$upscope $end
$scope module mbr $end
$var reg 1 j load $end
$var reg 1 k oe $end
$var reg 1 l clk $end
$var reg 8 m entrada[7:0] $end
$var reg 8 n salida[7:0] $end
$var reg 8 o valor[7:0] $end
$upscope $end
$scope module ir $end
$var reg 8 p entrada[7:0] $end
$var reg 1 q load $end
$var reg 1 r clk $end
$var reg 1 s reset $end
$var reg 8 t salida[7:0] $end
$upscope $end
$scope module r1 $end
$var reg 8 u entrada[7:0] $end
$var reg 1 v load $end
$var reg 1 w clk $end
$var reg 1 x reset $end
$var reg 8 y salida[7:0] $end
$upscope $end
$scope module r2 $end
$var reg 8 z entrada[7:0] $end
$var reg 1 { load $end
$var reg 1 | clk $end
$var reg 1 } reset $end
$var reg 8 !" salida[7:0] $end
$upscope $end
$scope module r3 $end
$var reg 8 "" entrada[7:0] $end
$var reg 1 #" load $end
$var reg 1 $" clk $end
$var reg 1 %" reset $end
$var reg 8 &" salida[7:0] $end
$upscope $end
$scope module muxa $end
$var reg 8 '" a[7:0] $end
$var reg 8 (" b[7:0] $end
$var reg 8 )" c[7:0] $end
$var reg 8 *" d[7:0] $end
$var reg 2 +" sel[1:0] $end
$var reg 8 ," op[7:0] $end
$upscope $end
$scope module muxb $end
$var reg 8 -" a[7:0] $end
$var reg 8 ." b[7:0] $end
$var reg 8 /" c[7:0] $end
$var reg 8 0" d[7:0] $end
$var reg 2 1" sel[1:0] $end
$var reg 8 2" op[7:0] $end
$upscope $end
$scope module ual $end
$var reg 8 3" opa[7:0] $end
$var reg 8 4" opb[7:0] $end
$var reg 6 5" oper[5:0] $end
$var reg 1 6" oe $end
$var reg 1 7" clk $end
$var reg 1 8" zf $end
$var reg 1 9" nf $end
$var reg 8 :" r[7:0] $end
$var reg 16 ;" rtemp[15:0] $end
$upscope $end
$scope module uctl $end
$var reg 8 <" coop[7:0] $end
$var reg 1 =" reset $end
$var reg 1 >" clk $end
$var reg 16 ?" scontrol[15:0] $end
$comment contenido is not handled $end
$var integer 32 @" palabra $end
$var reg 3 A" contador[2:0] $end
$var reg 11 B" direccion[10:0] $end
$upscope $end
$scope module dec $end
$var reg 1 C" wr $end
$var reg 1 D" memoe $end
$var reg 1 E" clk $end
$var reg 9 F" entrada[8:0] $end
$var reg 1 G" cs $end
$var reg 1 H" pa $end
$var reg 1 I" pc $end
$var reg 1 J" pe $end
$var reg 1 K" pb $end
$var reg 1 L" pd $end
$var reg 1 M" pf $end
$var reg 1 N" spa $end
$var reg 1 O" spb $end
$var reg 1 P" spc $end
$var reg 1 Q" spd $end
$var reg 1 R" spe $end
$var reg 1 S" spf $end
$upscope $end
$scope module ptob $end
$var reg 8 T" entrada[7:0] $end
$var reg 1 U" load $end
$var reg 1 V" clk $end
$var reg 1 W" reset $end
$var reg 8 X" salida[7:0] $end
$upscope $end
$scope module ptod $end
$var reg 8 Y" entrada[7:0] $end
$var reg 1 Z" load $end
$var reg 1 [" clk $end
$var reg 1 \" reset $end
$var reg 8 ]" salida[7:0] $end
$upscope $end
$scope module ptof $end
$var reg 8 ^" entrada[7:0] $end
$var reg 1 _" load $end
$var reg 1 `" clk $end
$var reg 1 a" reset $end
$var reg 8 b" salida[7:0] $end
$upscope $end
$scope module flags $end
$var reg 1 c" zf $end
$var reg 1 d" nf $end
$var reg 1 e" clk $end
$var reg 1 f" aluoe $end
$var reg 1 g" zeros $end
$var reg 1 h" neg $end
$upscope $end
$upscope $end
$enddefinitions $end
#0
1!
b00010000 "
bUUUUUUUU #
bUUUUUUUU $
bUUUUUUUU %
bUUUUUUUU &
bUUUUUUUU '
0(
1)
1*
0+
b00010000 ,
bUUUUUUUU -
bUUUUUUUU .
bUUUUUUUU /
bUUUUUUUU 0
bUUUUUUUU 1
b0UUUUUUUU 2
b000000000 3
b000000000 4
b00000000 5
b00000000 6
b00000000 7
b00000000 8
bUUUUUUUU 9
bUUUUUUUU :
bUUUUUUUU ;
b000000 <
b0001010010111000 =
b00 >
b00 ?
U@
UA
1B
0C
1D
0E
0F
0G
0H
0I
0J
UK
UL
1M
1N
1O
1P
0Q
0R
0S
0T
0U
0V
0W
1X
0Y
1Z
0[
b0UUUUUUUU \
b000000000 ]
1^
0_
0`
b000000000 a
b0UUUUUUUU b
b000000000 c
b000000000 d
bUUUUUUUU e
1f
1g
0h
b0 i
0j
1k
0l
bUUUUUUUU m
bUUUUUUUU n
b00000000 o
bUUUUUUUU p
0q
0r
1s
b00000000 t
bUUUUUUUU u
0v
0w
1x
b00000000 y
bUUUUUUUU z
0{
0|
1}
b00000000 !"
bUUUUUUUU ""
0#"
0$"
1%"
b00000000 &"
bUUUUUUUU '"
b00000000 ("
b00000000 )"
b00000000 *"
b00 +"
bUUUUUUUU ,"
bUUUUUUUU -"
b00000000 ."
b00000000 /"
b00000000 0"
b00 1"
bUUUUUUUU 2"
bUUUUUUUU 3"
bUUUUUUUU 4"
b000000 5"
16"
07"
U8"
U9"
bUUUUUUUU :"
bUUUUUUUUUUUUUUUU ;"
b00000000 <"
1="
0>"
b0001010010111000 ?"
b0 @"
b000 A"
b00000000000 B"
1C"
1D"
0E"
b000000000 F"
0G"
0H"
0I"
0J"
0K"
0L"
0M"
0N"
0O"
0P"
0Q"
0R"
0S"
bUUUUUUUU T"
0U"
0V"
1W"
bUUUUUUUU X"
bUUUUUUUU Y"
0Z"
0["
1\"
bUUUUUUUU ]"
bUUUUUUUU ^"
0_"
0`"
1a"
bUUUUUUUU b"
Uc"
Ud"
0e"
1f"
Ug"
Uh"
#25000000
1(
1+
b010000100 2
b000000001 3
b10000100 9
b10000100 :
b10000100 ;
b0000000110011000 =
0B
0D
1E
0M
0X
1[
b010000100 \
b000000001 ]
0^
1`
b000000001 a
b010000100 b
b10000100 e
0g
1j
1l
b10000100 m
b10000100 n
b10000100 p
1r
b10000100 u
1w
b10000100 z
1|
b10000100 ""
1$"
b10000100 '"
b10000100 ,"
b10000100 -"
b10000100 2"
b10000100 3"
b10000100 4"
17"
b10000100 :"
1>"
b0000000110011000 ?"
b1 @"
b001 A"
b00000000001 B"
0D"
1E"
b10000100 T"
1V"
b10000100 Y"
1["
b10000100 ^"
1`"
1e"
#50000000
0(
0+
0[
0`
0l
b10000100 n
0r
0w
0|
0$"
07"
b10000100 :"
0>"
0E"
0V"
0["
0`"
0e"
#75000000
1(
1+
b0000000001111000 =
0E
1F
1M
0P
1[
1`
1g
0j
0k
1l
b10000100 n
b10000100 o
1q
1r
1w
1|
1$"
17"
b10000100 :"
1>"
b0000000001111000 ?"
b10 @"
b010 A"
b00000000010 B"
1D"
1E"
1V"
1["
1`"
1e"
#100000000
0(
0+
0[
0`
0l
b10000100 n
0r
0w
0|
0$"
07"
b10000100 :"
0>"
0E"
0V"
0["
0`"
0e"
#125000000
1(
1+
b0ZZZZZZZZ 2
b10000100 5
b00000000 9
bZZZZZZZZ :
bZZZZZZZZ ;
b100001 <
b0001010010111000 =
b01 >
1B
1D
0F
1P
1X
1[
b0ZZZZZZZZ \
1^
1`
b0ZZZZZZZZ b
bZZZZZZZZ e
1k
1l
bZZZZZZZZ m
bZZZZZZZZ n
bZZZZZZZZ p
0q
1r
b10000100 t
bZZZZZZZZ u
1w
bZZZZZZZZ z
1|
bZZZZZZZZ ""
1$"
bZZZZZZZZ '"
b01 +"
b00000000 ,"
bZZZZZZZZ -"
bZZZZZZZZ 2"
b00000000 3"
bZZZZZZZZ 4"
b100001 5"
17"
bZZZZZZZZ :"
b10000100 <"
1>"
b0001010010111000 ?"
b10000100011 @"
b011 A"
b10000100011 B"
1E"
bZZZZZZZZ T"
1V"
bZZZZZZZZ Y"
1["
bZZZZZZZZ ^"
1`"
1e"
#150000000
0(
0+
0[
0`
0l
bZZZZZZZZ n
0r
0w
0|
0$"
07"
bZZZZZZZZ :"
0>"
0E"
0V"
0["
0`"
0e"
#175000000
1(
1+
b000000110 2
b000000010 3
b000000001 4
b00000110 :
b00000110 ;
b0000000110011000 =
0B
0D
1E
0M
0X
1[
b000000110 \
b000000010 ]
0^
1`
b000000010 a
b000000110 b
b000000001 c
b000000001 d
b00000110 e
0g
b1 i
1j
1l
b00000110 m
b00000110 n
b00000110 p
1r
b00000110 u
1w
b00000110 z
1|
b00000110 ""
1$"
b00000110 '"
b00000110 -"
b00000110 2"
b00000110 4"
17"
b00000110 :"
1>"
b0000000110011000 ?"
b10000100100 @"
b100 A"
b10000100100 B"
0D"
1E"
b000000001 F"
b00000110 T"
1V"
b00000110 Y"
1["
b00000110 ^"
1`"
1e"
#200000000
0(
0+
0[
0`
0l
b00000110 n
0r
0w
0|
0$"
07"
b00000110 :"
0>"
0E"
0V"
0["
0`"
0e"
#225000000
1(
1+
b000000110 2
b00000110 :
b00000110 ;
b0000000010110100 =
0E
1H
1M
0O
1[
b000000110 \
1`
b000000110 b
b00000110 e
1g
0j
1l
b00000110 m
b00000110 n
b00000110 o
b00000110 p
1r
b00000110 u
1v
1w
b00000110 z
1|
b00000110 ""
1$"
b00000110 '"
b00000110 -"
b00000110 2"
b00000110 4"
06"
17"
b00000110 :"
b0000000000000110 ;"
1>"
b0000000010110100 ?"
b10000100101 @"
b101 A"
b10000100101 B"
1D"
1E"
b00000110 T"
1V"
b00000110 Y"
1["
b00000110 ^"
1`"
1e"
0f"
#250000000
0(
0+
0[
0`
0l
b00000110 n
0r
0w
0|
0$"
07"
b00000110 :"
0>"
0E"
0V"
0["
0`"
0e"
#275000000
1(
1+
b0ZZZZZZZZ 2
b00000110 6
b00000110 9
bZZZZZZZZ :
bZZZZZZZZ ;
b0000000010111000 =
0H
1O
1[
b0ZZZZZZZZ \
1`
b0ZZZZZZZZ b
bZZZZZZZZ e
1l
bZZZZZZZZ m
bZZZZZZZZ n
bZZZZZZZZ p
1r
bZZZZZZZZ u
0v
1w
b00000110 y
bZZZZZZZZ z
1|
bZZZZZZZZ ""
1$"
bZZZZZZZZ '"
b00000110 ("
b00000110 ,"
bZZZZZZZZ -"
b00000110 ."
bZZZZZZZZ 2"
b00000110 3"
bZZZZZZZZ 4"
16"
17"
bZZZZZZZZ :"
1>"
b0000000010111000 ?"
b10000100110 @"
b110 A"
b10000100110 B"
1E"
bZZZZZZZZ T"
1V"
bZZZZZZZZ Y"
1["
bZZZZZZZZ ^"
1`"
1e"
1f"
#300000000
0(
0+
0[
0`
0l
bZZZZZZZZ n
0r
0w
0|
0$"
07"
bZZZZZZZZ :"
0>"
0E"
0V"
0["
0`"
0e"
#325000000
1(
1+
1[
1`
1l
bZZZZZZZZ n
1r
1w
1|
1$"
17"
bZZZZZZZZ :"
1>"
b10000100111 @"
b111 A"
b10000100111 B"
1E"
1V"
1["
1`"
1e"
#350000000
0(
0+
0[
0`
0l
bZZZZZZZZ n
0r
0w
0|
0$"
07"
bZZZZZZZZ :"
0>"
0E"
0V"
0["
0`"
0e"
#375000000
1(
1+
b0001010010111000 =
1B
1D
1X
1[
1^
1`
1l
bZZZZZZZZ n
1r
1w
1|
1$"
17"
bZZZZZZZZ :"
1>"
b0001010010111000 ?"
b10000100000 @"
b000 A"
b10000100000 B"
1E"
1V"
1["
1`"
1e"
#400000000
0(
0+
0[
0`
0l
bZZZZZZZZ n
0r
0w
0|
0$"
07"
bZZZZZZZZ :"
0>"
0E"
0V"
0["
0`"
0e"
#425000000
1(
1+
b000000100 2
b000000011 3
b000000010 4
b00000100 :
b00000100 ;
b0000000110011000 =
0B
0D
1E
0M
0X
1[
b000000100 \
b000000011 ]
0^
1`
b000000011 a
b000000100 b
b000000010 c
b000000010 d
b00000100 e
0g
b10 i
1j
1l
b00000100 m
b00000100 n
b00000100 p
1r
b00000100 u
1w
b00000100 z
1|
b00000100 ""
1$"
b00000100 '"
b00000100 -"
b00000100 2"
b00000100 4"
17"
b00000100 :"
1>"
b0000000110011000 ?"
b10000100001 @"
b001 A"
b10000100001 B"
0D"
1E"
b000000010 F"
b00000100 T"
1V"
b00000100 Y"
1["
b00000100 ^"
1`"
1e"
#450000000
0(
0+
0[
0`
0l
b00000100 n
0r
0w
0|
0$"
07"
b00000100 :"
0>"
0E"
0V"
0["
0`"
0e"
#475000000
1(
1+
b0000000001111000 =
0E
1F
1M
0P
1[
1`
1g
0j
0k
1l
b00000100 n
b00000100 o
1q
1r
1w
1|
1$"
17"
b00000100 :"
1>"
b0000000001111000 ?"
b10000100010 @"
b010 A"
b10000100010 B"
1D"
1E"
1V"
1["
1`"
1e"
#500000000
0(
0+
0[
0`
0l
b00000100 n
0r
0w
0|
0$"
07"
b00000100 :"
0>"
0E"
0V"
0["
0`"
0e"
#525000000
1(
1+
b0ZZZZZZZZ 2
b00000100 5
bZZZZZZZZ :
bZZZZZZZZ ;
b000001 <
b0001010010111000 =
1B
1D
0F
1P
1X
1[
b0ZZZZZZZZ \
1^
1`
b0ZZZZZZZZ b
bZZZZZZZZ e
1k
1l
bZZZZZZZZ m
bZZZZZZZZ n
bZZZZZZZZ p
0q
1r
b00000100 t
bZZZZZZZZ u
1w
bZZZZZZZZ z
1|
bZZZZZZZZ ""
1$"
bZZZZZZZZ '"
bZZZZZZZZ -"
bZZZZZZZZ 2"
bZZZZZZZZ 4"
b000001 5"
17"
bZZZZZZZZ :"
b00000100 <"
1>"
b0001010010111000 ?"
b100011 @"
b011 A"
b00000100011 B"
1E"
bZZZZZZZZ T"
1V"
bZZZZZZZZ Y"
1["
bZZZZZZZZ ^"
1`"
1e"
#550000000
0(
0+
0[
0`
0l
bZZZZZZZZ n
0r
0w
0|
0$"
07"
bZZZZZZZZ :"
0>"
0E"
0V"
0["
0`"
0e"
#575000000
1(
1+
b000001000 2
b000000100 3
b000000011 4
b00001000 :
b00001000 ;
b0000000110011000 =
0B
0D
1E
0M
0X
1[
b000001000 \
b000000100 ]
0^
1`
b000000100 a
b000001000 b
b000000011 c
b000000011 d
b00001000 e
0g
b11 i
1j
1l
b00001000 m
b00001000 n
b00001000 p
1r
b00001000 u
1w
b00001000 z
1|
b00001000 ""
1$"
b00001000 '"
b00001000 -"
b00001000 2"
b00001000 4"
17"
b00001000 :"
1>"
b0000000110011000 ?"
b100100 @"
b100 A"
b00000100100 B"
0D"
1E"
b000000011 F"
b00001000 T"
1V"
b00001000 Y"
1["
b00001000 ^"
1`"
1e"
#600000000
0(
0+
0[
0`
0l
b00001000 n
0r
0w
0|
0$"
07"
b00001000 :"
0>"
0E"
0V"
0["
0`"
0e"
#625000000
1(
1+
b000001110 2
b00001110 :
b00001110 ;
b0000000010110100 =
0@
0A
0E
1H
1M
0O
1[
b000001110 \
1`
b000001110 b
b00001110 e
1g
0j
1l
b00001110 m
b00001110 n
b00001000 o
b00001110 p
1r
b00001110 u
1v
1w
b00001110 z
1|
b00001110 ""
1$"
b00001110 '"
b00001110 -"
b00001110 2"
b00001110 4"
06"
17"
08"
09"
b00001110 :"
b0000000000001110 ;"
1>"
b0000000010110100 ?"
b100101 @"
b101 A"
b00000100101 B"
1D"
1E"
b00001110 T"
1V"
b00001110 Y"
1["
b00001110 ^"
1`"
0c"
0d"
1e"
0f"
#650000000
0(
0+
0[
0`
0l
b00001110 n
0r
0w
0|
0$"
07"
b00001110 :"
0>"
0E"
0V"
0["
0`"
0e"
#675000000
1(
1+
b0ZZZZZZZZ 2
b00001110 6
b00001110 9
bZZZZZZZZ :
bZZZZZZZZ ;
b0000000010111000 =
0H
1O
1[
b0ZZZZZZZZ \
1`
b0ZZZZZZZZ b
bZZZZZZZZ e
1l
bZZZZZZZZ m
bZZZZZZZZ n
bZZZZZZZZ p
1r
bZZZZZZZZ u
0v
1w
b00001110 y
bZZZZZZZZ z
1|
bZZZZZZZZ ""
1$"
bZZZZZZZZ '"
b00001110 ("
b00001110 ,"
bZZZZZZZZ -"
b00001110 ."
bZZZZZZZZ 2"
b00001110 3"
bZZZZZZZZ 4"
16"
17"
bZZZZZZZZ :"
1>"
b0000000010111000 ?"
b100110 @"
b110 A"
b00000100110 B"
1E"
bZZZZZZZZ T"
1V"
bZZZZZZZZ Y"
1["
bZZZZZZZZ ^"
1`"
1e"
1f"
#700000000
0(
0+
0[
0`
0l
bZZZZZZZZ n
0r
0w
0|
0$"
07"
bZZZZZZZZ :"
0>"
0E"
0V"
0["
0`"
0e"
#725000000
1(
1+
0K
0L
1[
1`
1l
bZZZZZZZZ n
1r
1w
1|
1$"
17"
bZZZZZZZZ :"
1>"
b100111 @"
b111 A"
b00000100111 B"
1E"
1V"
1["
1`"
1e"
0g"
0h"
#750000000
0(
0+
0[
0`
0l
bZZZZZZZZ n
0r
0w
0|
0$"
07"
bZZZZZZZZ :"
0>"
0E"
0V"
0["
0`"
0e"
#775000000
1(
1+
b0001010010111000 =
1B
1D
1X
1[
1^
1`
1l
bZZZZZZZZ n
1r
1w
1|
1$"
17"
bZZZZZZZZ :"
1>"
b0001010010111000 ?"
b100000 @"
b000 A"
b00000100000 B"
1E"
1V"
1["
1`"
1e"
#800000000
0(
0+
0[
0`
0l
bZZZZZZZZ n
0r
0w
0|
0$"
07"
bZZZZZZZZ :"
0>"
0E"
0V"
0["
0`"
0e"
#825000000
1(
1+
b011010110 2
b000000101 3
b000000100 4
b11010110 :
b11010110 ;
b0000000110011000 =
0B
0D
1E
0M
0X
1[
b011010110 \
b000000101 ]
0^
1`
b000000101 a
b011010110 b
b000000100 c
b000000100 d
b11010110 e
0g
b100 i
1j
1l
b11010110 m
b11010110 n
b11010110 p
1r
b11010110 u
1w
b11010110 z
1|
b11010110 ""
1$"
b11010110 '"
b11010110 -"
b11010110 2"
b11010110 4"
17"
b11010110 :"
1>"
b0000000110011000 ?"
b100001 @"
b001 A"
b00000100001 B"
0D"
1E"
b000000100 F"
b11010110 T"
1V"
b11010110 Y"
1["
b11010110 ^"
1`"
1e"
#850000000
0(
0+
0[
0`
0l
b11010110 n
0r
0w
0|
0$"
07"
b11010110 :"
0>"
0E"
0V"
0["
0`"
0e"
#875000000
1(
1+
b0000000001111000 =
0E
1F
1M
0P
1[
1`
1g
0j
0k
1l
b11010110 n
b11010110 o
1q
1r
1w
1|
1$"
17"
b11010110 :"
1>"
b0000000001111000 ?"
b100010 @"
b010 A"
b00000100010 B"
1D"
1E"
1V"
1["
1`"
1e"
#900000000
0(
0+
0[
0`
0l
b11010110 n
0r
0w
0|
0$"
07"
b11010110 :"
0>"
0E"
0V"
0["
0`"
0e"
#925000000
1(
1+
b0ZZZZZZZZ 2
b11010110 5
b00000000 :
bZZZZZZZZ ;
b110101 <
b0001010010111000 =
b10 ?
1B
1D
0F
1P
1X
1[
b0ZZZZZZZZ \
1^
1`
b0ZZZZZZZZ b
bZZZZZZZZ e
1k
1l
bZZZZZZZZ m
bZZZZZZZZ n
bZZZZZZZZ p
0q
1r
b11010110 t
bZZZZZZZZ u
1w
bZZZZZZZZ z
1|
bZZZZZZZZ ""
1$"
bZZZZZZZZ '"
bZZZZZZZZ -"
b10 1"
b00000000 2"
b00000000 4"
b110101 5"
17"
bZZZZZZZZ :"
b11010110 <"
1>"
b0001010010111000 ?"
b11010110011 @"
b011 A"
b11010110011 B"
1E"
bZZZZZZZZ T"
1V"
bZZZZZZZZ Y"
1["
bZZZZZZZZ ^"
1`"
1e"
#950000000
0(
0+
0[
0`
0l
bZZZZZZZZ n
0r
0w
0|
0$"
07"
bZZZZZZZZ :"
0>"
0E"
0V"
0["
0`"
0e"
#975000000
1(
1+
b011110000 2
b000000110 3
b000000101 4
b11110000 ;
b0000000110011000 =
0B
0D
1E
0M
0X
1[
b011110000 \
b000000110 ]
0^
1`
b000000110 a
b011110000 b
b000000101 c
b000000101 d
b11110000 e
0g
b101 i
1j
1l
b11110000 m
b11110000 n
b11110000 p
1r
b11110000 u
1w
b11110000 z
1|
b11110000 ""
1$"
b11110000 '"
b11110000 -"
17"
b11110000 :"
1>"
b0000000110011000 ?"
b11010110100 @"
b100 A"
b11010110100 B"
0D"
1E"
b000000101 F"
b11110000 T"
1V"
b11110000 Y"
1["
b11110000 ^"
1`"
1e"
#1000000000
0(
0+
0[
0`
0l
b11110000 n
0r
0w
0|
0$"
07"
b11110000 :"
0>"
0E"
0V"
0["
0`"
0e"
#1025000000
1(
1+
b0000011000111000 =
1D
0E
1G
1M
0P
1[
1^
1_
1`
1g
0j
0k
1l
b11110000 n
b11110000 o
1r
1w
1|
1$"
17"
b11110000 :"
1>"
b0000011000111000 ?"
b11010110101 @"
b101 A"
b11010110101 B"
1D"
1E"
1V"
1["
1`"
1e"
#1050000000
0(
0+
0[
0`
0l
b11110000 n
0r
0w
0|
0$"
07"
b11110000 :"
0>"
0E"
0V"
0["
0`"
0e"
#1075000000
1(
1+
b000001110 2
b011110000 4
b00001110 ;
b0000000010100000 =
0D
0G
0N
0O
1P
1[
b000001110 \
0^
0_
1`
b000001110 b
b011110000 c
b011110000 d
b00001110 e
0f
b11110000 i
1k
1l
b00001110 m
b00001110 n
b00001110 p
1r
b00001110 u
1w
b00001110 z
1|
b00001110 ""
1$"
b00001110 '"
b00001110 -"
06"
17"
b00001110 :"
1>"
b0000000010100000 ?"
b11010110110 @"
b110 A"
b11010110110 B"
0C"
1E"
b011110000 F"
b00001110 T"
1V"
b00001110 Y"
1["
b00001110 ^"
1`"
1e"
0f"
#1100000000
0(
0+
0[
0`
0l
b00001110 n
0r
0w
0|
0$"
07"
b00001110 :"
0>"
0E"
0V"
0["
0`"
0e"
#1125000000
1(
1+
1[
1`
1l
b00001110 n
1r
1w
1|
1$"
17"
b00001110 :"
1>"
b11010110111 @"
b111 A"
b11010110111 B"
1E"
1V"
1["
1`"
1e"
#1150000000
0(
0+
0[
0`
0l
b00001110 n
0r
0w
0|
0$"
07"
b00001110 :"
0>"
0E"
0V"
0["
0`"
0e"
#1175000000
1(
1+
b0ZZZZZZZZ 2
bZZZZZZZZ ;
b0001010010111000 =
1B
1D
1N
1O
1X
1[
b0ZZZZZZZZ \
1^
1`
b0ZZZZZZZZ b
bZZZZZZZZ e
1f
1l
bZZZZZZZZ m
bZZZZZZZZ n
bZZZZZZZZ p
1r
bZZZZZZZZ u
1w
bZZZZZZZZ z
1|
bZZZZZZZZ ""
1$"
bZZZZZZZZ '"
bZZZZZZZZ -"
16"
17"
bZZZZZZZZ :"
1>"
b0001010010111000 ?"
b11010110000 @"
b000 A"
b11010110000 B"
1C"
1E"
bZZZZZZZZ T"
1V"
bZZZZZZZZ Y"
1["
bZZZZZZZZ ^"
1`"
1e"
1f"
#1200000000
0(
0+
0[
0`
0l
bZZZZZZZZ n
0r
0w
0|
0$"
07"
bZZZZZZZZ :"
0>"
0E"
0V"
0["
0`"
0e"
#1225000000
1(
1+
b011011001 2
b000000111 3
b000000110 4
b11011001 ;
b0000000110011000 =
0B
0D
1E
0M
0X
1[
b011011001 \
b000000111 ]
0^
1`
b000000111 a
b011011001 b
b000000110 c
b000000110 d
b11011001 e
0g
b110 i
1j
1l
b11011001 m
b11011001 n
b11011001 p
1r
b11011001 u
1w
b11011001 z
1|
b11011001 ""
1$"
b11011001 '"
b11011001 -"
17"
b11011001 :"
1>"
b0000000110011000 ?"
b11010110001 @"
b001 A"
b11010110001 B"
0D"
1E"
b000000110 F"
b11011001 T"
1V"
b11011001 Y"
1["
b11011001 ^"
1`"
1e"
#1250000000
0(
0+
0[
0`
0l
b11011001 n
0r
0w
0|
0$"
07"
b11011001 :"
0>"
0E"
0V"
0["
0`"
0e"
#1275000000
1(
1+
b0000000001111000 =
0E
1F
1M
0P
1[
1`
1g
0j
0k
1l
b11011001 n
b11011001 o
1q
1r
1w
1|
1$"
17"
b11011001 :"
1>"
b0000000001111000 ?"
b11010110010 @"
b010 A"
b11010110010 B"
1D"
1E"
1V"
1["
1`"
1e"
#1300000000
0(
0+
0[
0`
0l
b11011001 n
0r
0w
0|
0$"
07"
b11011001 :"
0>"
0E"
0V"
0["
0`"
0e"
#1325000000
1(
1+
b1ZZZZZZZZ 2
b11011001 5
b00000000 9
b00001110 :
bZZZZZZZZ ;
b110110 <
b0001010010111000 =
b10 >
b01 ?
1B
1D
0F
1P
1X
1[
b1ZZZZZZZZ \
1^
1`
b1ZZZZZZZZ b
bZZZZZZZZ e
1k
1l
bZZZZZZZZ m
bZZZZZZZZ n
bZZZZZZZZ p
0q
1r
b11011001 t
bZZZZZZZZ u
1w
bZZZZZZZZ z
1|
bZZZZZZZZ ""
1$"
bZZZZZZZZ '"
b10 +"
b00000000 ,"
bZZZZZZZZ -"
b01 1"
b00001110 2"
b00000000 3"
b00001110 4"
b110110 5"
17"
bZZZZZZZZ :"
b11011001 <"
1>"
b0001010010111000 ?"
b11011001011 @"
b011 A"
b11011001011 B"
1E"
bZZZZZZZZ T"
1V"
bZZZZZZZZ Y"
1["
bZZZZZZZZ ^"
1`"
1e"
#1350000000
0(
0+
0[
0`
0l
bZZZZZZZZ n
0r
0w
0|
0$"
07"
bZZZZZZZZ :"
0>"
0E"
0V"
0["
0`"
0e"
#1375000000
1(
1+
b111111010 2
b000001000 3
b000000111 4
b11111010 ;
b0000000110011000 =
0B
0D
1E
0M
0X
1[
b111111010 \
b000001000 ]
0^
1`
b000001000 a
b111111010 b
b000000111 c
b000000111 d
b11111010 e
0g
b111 i
1j
1l
b11111010 m
b11111010 n
b11111010 p
1r
b11111010 u
1w
b11111010 z
1|
b11111010 ""
1$"
b11111010 '"
b11111010 -"
17"
b11111010 :"
1>"
b0000000110011000 ?"
b11011001100 @"
b100 A"
b11011001100 B"
0D"
1E"
b000000111 F"
b11111010 T"
1V"
b11111010 Y"
1["
b11111010 ^"
1`"
1e"
#1400000000
0(
0+
0[
0`
0l
b11111010 n
0r
0w
0|
0$"
07"
b11111010 :"
0>"
0E"
0V"
0["
0`"
0e"
#1425000000
1(
1+
b0000011000111000 =
1D
0E
1G
1M
0P
1[
1^
1_
1`
1g
0j
0k
1l
b11111010 n
b11111010 o
1r
1w
1|
1$"
17"
b11111010 :"
1>"
b0000011000111000 ?"
b11011001101 @"
b101 A"
b11011001101 B"
1D"
1E"
1V"
1["
1`"
1e"
#1450000000
0(
0+
0[
0`
0l
b11111010 n
0r
0w
0|
0$"
07"
b11111010 :"
0>"
0E"
0V"
0["
0`"
0e"
#1475000000
1(
1+
b100000000 2
b111111010 4
b00000000 ;
b0000000110011010 =
0D
1E
0G
1I
0M
1P
1[
b100000000 \
0^
0_
1`
b100000000 b
b111111010 c
b111111010 d
b00000000 e
0g
b111111010 i
1j
1k
1l
b00000000 m
b00000000 n
b00000000 p
1r
b00000000 u
1w
b00000000 z
1{
1|
b00000000 ""
1$"
b00000000 '"
b00000000 -"
17"
b00000000 :"
1>"
b0000000110011010 ?"
b11011001110 @"
b110 A"
b11011001110 B"
0D"
1E"
b111111010 F"
b00000000 T"
1V"
b00000000 Y"
1["
b00000000 ^"
1`"
1e"
